Hedges's g
…
Here are the top 10 rows of tibStats (after sorting them into more sensible row order). I am just using the raw way that R prints a tibble as it shows the list variables samp1 and samp2.

Show code

tibStats %>%
  arrange(popMean2, n1, n2, simulnN) -> tibStats

tibStats

# A tibble: 540,000 × 24
   simulnN popMean2    n1 asymm    n2  totN samp1      samp2 sampMean1
     <int>    <dbl> <dbl> <int> <dbl> <dbl> <list>     <lis>     <dbl>
 1       1        0    10     1    10    20 <dbl [10]> <dbl>   -0.133 
 2       2        0    10     1    10    20 <dbl [10]> <dbl>   -0.110 
 3       3        0    10     1    10    20 <dbl [10]> <dbl>    0.0741
 4       4        0    10     1    10    20 <dbl [10]> <dbl>   -0.169 
 5       5        0    10     1    10    20 <dbl [10]> <dbl>   -0.125 
 6       6        0    10     1    10    20 <dbl [10]> <dbl>    0.148 
 7       7        0    10     1    10    20 <dbl [10]> <dbl>   -0.266 
 8       8        0    10     1    10    20 <dbl [10]> <dbl>    0.276 
 9       9        0    10     1    10    20 <dbl [10]> <dbl>   -0.310 
10      10        0    10     1    10    20 <dbl [10]> <dbl>    0.240 
# ℹ 539,990 more rows
# ℹ 15 more variables: sampMean2 <dbl>, sampSD1 <dbl>, sampSD2 <dbl>,
#   pooledSD <dbl>, pooledSD2 <dbl>, unadjG <dbl>, compJG <dbl>,
#   durlakG <dbl>, hedgesG1 <dbl>, hedgesG9 <dbl>, DescToolsD <dbl>,
#   DescToolsG <dbl>, effsizeD <dbl>, effsizeG <dbl>, escG <dbl>
…
