…
I used a rather excessive number of breaks there but it makes the point.

## How do those methods work with the original data?

In this next set of blocks I've applied the same three tricks but to both the raw data and the discretised data.

### Jittering

```{r scatter3b, echo=TRUE, message=FALSE, warning=FALSE, cache=TRUE}
### reshape data to make it easy to get plots side by side using facetting
tibDat %>%
  ### first pivot longer 
  pivot_longer(cols = everything()) %>%
  ### which gets something like this
  #   # A tibble: 20,000 x 2
  #    name    value
  #    <chr>   <dbl>
  #  1 x      0.586 
  #  2 y     -0.107 
  #  3 x5     4     
  #  4 y5     3     
  #  5 x      0.709 
  #  6 y      1.83  
  #  7 x5     4     
  #  8 y5     5     
  #  9 x     -0.109 
  # 10 y      0.0652
  # # … with 19,990 more rows
  ### now get new variables one for x and y
  mutate(variable = str_sub(name, 1, 1),
       ### and one for the transform
       transform = str_sub(name, 2, 2),
       transform = if_else(transform == "5", "discretised", "raw"),
       transform = factor(transform,
                          levels = c("raw", "discretised")),
       ### create an id variable clumping each set of four scores together
       id = (3 + row_number()) %/% 4) %>%
  ### so now we can pivot back 
  pivot_wider(id_cols = c(id, transform), values_from = value, names_from = variable) -> tibDat2
### to get this
# A tibble: 10,000 x 4
#       id transform        x       y
#    <dbl> <chr>        <dbl>   <dbl>
#  1     1 raw          0.586 -0.107 
#  2     1 discretised  4      3     
#  3     2 raw          0.709  1.83  
#  4     2 discretised  4      5     
#  5     3 raw         -0.109  0.0652
#  6     3 discretised  3      3     
#  7     4 raw         -0.453 -2.42  
#  8     4 discretised  2      1     
#  9     5 raw          0.606 -1.04  
# 10     5 discretised  4      2     
# # … with 9,990 more rows
…
