Why pipe? Why the tidyverse?
…
Now if I want to understand what I’ve created I just type its name:

tibParticipants

# A tibble: 500 × 4
   gender   age nCompletions    ID
   <chr>  <int>        <int> <int>
 1 F         11            8     1
 2 M         11           30     2
 3 F         15            8     3
 4 F         13            2     4
 5 F         13           12     5
 6 F         15           20     6
 7 F         15            6     7
 8 M         18            4     8
 9 M         11           30     9
10 F         14           15    10
# ℹ 490 more rows

Instead of showing me all 500 rows, I just get the top ten (like using head(dataFrame) in classical R) but I also get pretty much everything else I need to know about the data. Had there been too many variables to fit on the screen the listing would have ended with a line giving me the names of all the variables that wouldn’t fit on the screen.

tibParticipants %>% 
  select(ID, nCompletions) %>% # get just the ID codes
  ### I confess that I always have to look up uncount(): 
  ### I can never remember the name, let's just stop there
  ### and see what it did ...
  uncount(nCompletions) 

# A tibble: 7,679 × 1
      ID
   <int>
 1     1
 2     1
 3     1
 4     1
 5     1
 6     1
 7     1
 8     1
 9     2
10     2
# ℹ 7,669 more rows
…
         ### (which is just getting back to nCompletions in
         ### tibParticipants)
         completionN = row_number()) %>%
  ### that gets an index number for each completion 
  ### of the questionnaire ...
  ### it's a very short questionnaire and so badly 
  ### designed the item are uncorrelated answers 
  ### between 0 and 5) ...
  mutate(item1 = sample(0:5, nCompletions2[1], replace = TRUE),
         item2 = sample(0:5, nCompletions2[1], replace = TRUE),
         item3 = sample(0:5, nCompletions2[1], replace = TRUE),
         item4 = sample(0:5, nCompletions2[1], replace = TRUE),
         item5 = sample(0:5, nCompletions2[1], replace = TRUE))

# A tibble: 7,679 × 8
# Groups:   ID [500]
      ID nCompletions2 completionN item1 item2 item3 item4 item5
   <int>         <int>       <int> <int> <int> <int> <int> <int>
 1     1             8           1     5     4     1     4     0
 2     1             8           2     5     1     2     4     2
 3     1             8           3     5     1     0     3     5
 4     1             8           4     0     0     0     2     0
 5     1             8           5     2     1     1     1     2
 6     1             8           6     5     1     4     3     3
 7     1             8           7     0     3     3     4     4
 8     1             8           8     2     5     4     0     1
 9     2            30           1     4     1     5     1     2
10     2            30           2     4     0     0     0     3
# ℹ 7,669 more rows
…
Now I want to join the demographics back into that so …

tibQuaireData %>%
  left_join(tibParticipants, by = "ID") 

# A tibble: 7,679 × 11
      ID nCompletions2 completionN item1 item2 item3 item4 item5
   <int>         <int>       <int> <int> <int> <int> <int> <int>
 1     1             8           1     4     1     0     5     2
 2     1             8           2     0     1     1     2     5
 3     1             8           3     1     3     5     3     5
 4     1             8           4     5     3     5     4     1
 5     1             8           5     0     1     2     3     4
 6     1             8           6     0     1     5     0     2
 7     1             8           7     2     4     1     1     3
 8     1             8           8     3     1     4     5     4
 9     2            30           1     0     0     0     0     5
10     2            30           2     2     5     1     3     0
# ℹ 7,669 more rows
# ℹ 3 more variables: gender <chr>, age <int>, nCompletions <int>

I didn’t actually have to put the by = "ID" argument in there as left_join will join every row in tibQuaireData to any row with a matching value in any variable shared between tibQuaireData and tibParticipants and in my little example the only shared variable is ID. OK, that’s looking good.

There are a full set of join functions: inner_join(), left_join(), right_join() and full_join() that handle the full set of ways you might want to merge to data sets on index variables. They are making three bits of work I’m involved in, each of which involve relational database structures feel very easy.

tibQuaireData %>%
  left_join(tibParticipants, by = "ID") %>%
  ### I will change the order of the variables, 
  ### this order seems better to me
  ### everything() picks up any variables not already named as we see
  select(ID, gender, age, nCompletions, nCompletions2, 
         everything()) 

# A tibble: 7,679 × 11
      ID gender   age nCompletions nCompletions2 completionN item1
   <int> <chr>  <int>        <int>         <int>       <int> <int>
 1     1 F         11            8             8           1     4
 2     1 F         11            8             8           2     0
 3     1 F         11            8             8           3     1
 4     1 F         11            8             8           4     5
 5     1 F         11            8             8           5     0
 6     1 F         11            8             8           6     0
 7     1 F         11            8             8           7     2
 8     1 F         11            8             8           8     3
 9     2 M         11           30            30           1     0
10     2 M         11           30            30           2     2
# ℹ 7,669 more rows
# ℹ 4 more variables: item2 <int>, item3 <int>, item4 <int>,
#   item5 <int>
…
OK, so the full range of scores was used for every item (doh!). Not the most obvious way to show that so that introduces pivoting. I think the name came from its use in spreadsheets but pivot_longer() and pivot_wider() give lovely control over converting data from wide to long (pivot_longer() … doh!) and pivot_wider() does the opposite.

[This is called an aside in Rmarkdown]
pivot_longer() and pivot_wider() replaced two earlier components of the dplyr/tidyverse system: gather() and spread() respectively. I found gather() and spread() sometimes hard use and have found pivot_longer() and pivot_wider() much better. If you see examples using gather() and spread() in the web, I would strongly recommend that you ignore them and find more recent work.

tibQuaireData %>%
  pivot_longer(cols = starts_with("item"))

# A tibble: 38,395 × 8
      ID gender   age nCompletions nCompletions2 completionN name 
   <int> <chr>  <int>        <int>         <int>       <int> <chr>
 1     1 F         11            8             8           1 item1
 2     1 F         11            8             8           1 item2
 3     1 F         11            8             8           1 item3
 4     1 F         11            8             8           1 item4
 5     1 F         11            8             8           1 item5
 6     1 F         11            8             8           2 item1
 7     1 F         11            8             8           2 item2
 8     1 F         11            8             8           2 item3
 9     1 F         11            8             8           2 item4
10     1 F         11            8             8           2 item5
# ℹ 38,385 more rows
# ℹ 1 more variable: value <int>

### "name" and "value" are the default names for the variables 
### created by pivoting but you can override them ...
tibQuaireData %>%
  pivot_longer(cols = starts_with("item"), 
               names_to = "item", 
               values_to = "score")

# A tibble: 38,395 × 8
      ID gender   age nCompletions nCompletions2 completionN item 
   <int> <chr>  <int>        <int>         <int>       <int> <chr>
 1     1 F         11            8             8           1 item1
 2     1 F         11            8             8           1 item2
 3     1 F         11            8             8           1 item3
 4     1 F         11            8             8           1 item4
 5     1 F         11            8             8           1 item5
 6     1 F         11            8             8           2 item1
 7     1 F         11            8             8           2 item2
 8     1 F         11            8             8           2 item3
 9     1 F         11            8             8           2 item4
10     1 F         11            8             8           2 item5
# ℹ 38,385 more rows
# ℹ 1 more variable: score <int>
…
