More piping, and rowwise()
…
### look at it
tmpDat

# A tibble: 5,000 x 7
   session  baseVar   item1  item2   item3   item4  item5
     <int>    <dbl>   <dbl>  <dbl>   <dbl>   <dbl>  <dbl>
 1       1  0.00631 -0.194  -0.280  0.0798 -0.331  -0.420
 2       2  2.71     2.39    2.94   2.15    3.45    1.64 
 3       3 -0.868   -0.413  -0.709 -0.938  -1.45   -0.662
 4       4 -0.601   -1.51   -1.43  -0.177  -0.541  -0.979
 5       5 -0.478   -1.26   -1.22   0.0396  0.667  -0.668
 6       6  0.449    0.517   1.06   0.526   0.645  -0.695
 7       7 -0.0757   0.413   0.868  0.163  -0.549   0.192
 8       8 -0.599    0.0248 -1.97  -0.0925 -1.53    0.944
 9       9 -0.0810   0.576   0.830 -0.121  -0.0841 -0.503
10      10  1.79     0.944   1.41   2.31    1.28    1.97 
# … with 4,990 more rows
…
I have not evaluated that as it stops with the moderately cryptic error message which I’m putting in here as I quite often forget the summarise(x = ) bit

# Error: `cur_data()` must only be used inside dplyr verbs.
# Run `rlang::last_error()` to see where the error occurred.

So let’s fix that.

Show code

tmpDat %>% 
  select(-baseVar) %>%
  group_by(session) %>%
  summarise(cor = corrr::correlate(cur_data()))

# A tibble: 50 x 2
# Groups:   session [10]
   session cor$term $item1 $item2 $item3 $item4 $item5
     <int> <chr>     <dbl>  <dbl>  <dbl>  <dbl>  <dbl>
 1       1 item1    NA      0.711  0.711  0.715  0.678
 2       1 item2     0.711 NA      0.704  0.699  0.714
 3       1 item3     0.711  0.704 NA      0.700  0.677
 4       1 item4     0.715  0.699  0.700 NA      0.693
 5       1 item5     0.678  0.714  0.677  0.693 NA    
 6       2 item1    NA      0.669  0.670  0.690  0.679
 7       2 item2     0.669 NA      0.644  0.679  0.680
 8       2 item3     0.670  0.644 NA      0.664  0.704
 9       2 item4     0.690  0.679  0.664 NA      0.679
10       2 item5     0.679  0.680  0.704  0.679 NA    
# … with 40 more rows
…
