Data ellipses and confidence ellipses
…
set.seed(12345) # get replicability
valN <- 300 # sample size (doh!)
x <- rnorm(valN) # Gaussian distribution
y <- x + rnorm(valN, sd = .3) # create correlated y variable
bind_cols(x = x, y = y) -> tibDat # build into a tibble

Here’s the head of that dataset.

Show code

### show the data
tibDat

# A tibble: 300 × 2
        x       y
    <dbl>   <dbl>
 1  0.586  0.742 
 2  0.709  0.712 
 3 -0.109 -0.241 
 4 -0.453 -0.0937
 5  0.606  0.571 
 6 -1.82  -1.81  
 7  0.630  0.989 
 8 -0.276 -0.173 
 9 -0.284 -0.383 
10 -0.919 -0.418 
# ℹ 290 more rows
…
